…
Note the month column is converted from a text to a monthly time object.

## Olumpics Running Example

We can store multiple time series as a single `tsibble` object.

``` r
data(olympic_running)
olympic_running
```

    ## # A tsibble: 312 x 4 [4Y]
    ## # Key:       Length, Sex [14]
    ##     Year Length Sex    Time
    ##    <int>  <int> <chr> <dbl>
    ##  1  1896    100 men    12  
    ##  2  1900    100 men    11  
    ##  3  1904    100 men    11  
    ##  4  1908    100 men    10.8
    ##  5  1912    100 men    10.8
    ##  6  1916    100 men    NA  
    ##  7  1920    100 men    10.8
    ##  8  1924    100 men    10.6
    ##  9  1928    100 men    10.8
    ## 10  1932    100 men    10.3
    ## # … with 302 more rows
…
So seven different length categories

## Sales of pharmaceutical products in Australia Example

``` r
data(PBS)
PBS
```

    ## # A tsibble: 67,596 x 9 [1M]
    ## # Key:       Concession, Type, ATC1, ATC2 [336]
    ##       Month Concession   Type        ATC1  ATC1_desc ATC2  ATC2_…¹ Scripts  Cost
    ##       <mth> <chr>        <chr>       <chr> <chr>     <chr> <chr>     <dbl> <dbl>
    ##  1 1991 Jul Concessional Co-payments A     Alimenta… A01   STOMAT…   18228 67877
    ##  2 1991 Aug Concessional Co-payments A     Alimenta… A01   STOMAT…   15327 57011
    ##  3 1991 Sep Concessional Co-payments A     Alimenta… A01   STOMAT…   14775 55020
    ##  4 1991 Oct Concessional Co-payments A     Alimenta… A01   STOMAT…   15380 57222
    ##  5 1991 Nov Concessional Co-payments A     Alimenta… A01   STOMAT…   14371 52120
    ##  6 1991 Dec Concessional Co-payments A     Alimenta… A01   STOMAT…   15028 54299
    ##  7 1992 Jan Concessional Co-payments A     Alimenta… A01   STOMAT…   11040 39753
    ##  8 1992 Feb Concessional Co-payments A     Alimenta… A01   STOMAT…   15165 54405
    ##  9 1992 Mar Concessional Co-payments A     Alimenta… A01   STOMAT…   16898 61108
    ## 10 1992 Apr Concessional Co-payments A     Alimenta… A01   STOMAT…   18141 65356
    ## # … with 67,586 more rows, and abbreviated variable name ¹​ATC2_desc

### `filter()` and `select()`

We can use the `filter()` function to extract the A10 scripts and the
relavent column we want:

``` r
PBS |>
  filter(ATC2 == "A10") |>
  select(Month, Concession, Type, Cost)
```

    ## # A tsibble: 816 x 4 [1M]
    ## # Key:       Concession, Type [4]
    ##       Month Concession   Type           Cost
    ##       <mth> <chr>        <chr>         <dbl>
    ##  1 1991 Jul Concessional Co-payments 2092878
    ##  2 1991 Aug Concessional Co-payments 1795733
    ##  3 1991 Sep Concessional Co-payments 1777231
    ##  4 1991 Oct Concessional Co-payments 1848507
    ##  5 1991 Nov Concessional Co-payments 1686458
    ##  6 1991 Dec Concessional Co-payments 1843079
    ##  7 1992 Jan Concessional Co-payments 1564702
    ##  8 1992 Feb Concessional Co-payments 1732508
    ##  9 1992 Mar Concessional Co-payments 2046102
    ## 10 1992 Apr Concessional Co-payments 2225977
    ## # … with 806 more rows
…
### `summarise()`

The new variable TotalC is the sum of all Cost values for each month.

``` r
PBS |>
  filter(ATC2 == "A10") |>
  select(Month, Concession, Type, Cost) |>
  summarise(TotalC = sum(Cost))
```

    ## # A tsibble: 204 x 2 [1M]
    ##       Month  TotalC
    ##       <mth>   <dbl>
    ##  1 1991 Jul 3526591
    ##  2 1991 Aug 3180891
    ##  3 1991 Sep 3252221
    ##  4 1991 Oct 3611003
    ##  5 1991 Nov 3565869
    ##  6 1991 Dec 4306371
    ##  7 1992 Jan 5088335
    ##  8 1992 Feb 2814520
    ##  9 1992 Mar 2985811
    ## 10 1992 Apr 3204780
    ## # … with 194 more rows
…
``` r
prison <- prison %>%
  mutate(Quarter = yearquarter(Date)) %>%
  select(-Date) %>%
  as_tsibble(key = c(State, Gender, Legal, Indigenous),
             index = Quarter)
prison
```

    ## # A tsibble: 3,072 x 6 [1Q]
    ## # Key:       State, Gender, Legal, Indigenous [64]
    ##    State Gender Legal    Indigenous Count Quarter
    ##    <chr> <chr>  <chr>    <chr>      <dbl>   <qtr>
    ##  1 ACT   Female Remanded ATSI           0 2005 Q1
    ##  2 ACT   Female Remanded ATSI           1 2005 Q2
    ##  3 ACT   Female Remanded ATSI           0 2005 Q3
    ##  4 ACT   Female Remanded ATSI           0 2005 Q4
    ##  5 ACT   Female Remanded ATSI           1 2006 Q1
    ##  6 ACT   Female Remanded ATSI           1 2006 Q2
    ##  7 ACT   Female Remanded ATSI           1 2006 Q3
    ##  8 ACT   Female Remanded ATSI           0 2006 Q4
    ##  9 ACT   Female Remanded ATSI           0 2007 Q1
    ## 10 ACT   Female Remanded ATSI           1 2007 Q2
    ## # … with 3,062 more rows
…
## STL decomposition

``` r
dcmp <- us_retail_employment |>
  model(stl = STL(Employed))
components(dcmp)
```

    ## # A dable: 357 x 7 [1M]
    ## # Key:     .model [1]
    ## # :        Employed = trend + season_year + remainder
    ##    .model    Month Employed  trend season_year remainder season_adjust
    ##    <chr>     <mth>    <dbl>  <dbl>       <dbl>     <dbl>         <dbl>
    ##  1 stl    1990 Jan   13256. 13288.      -33.0      0.836        13289.
    ##  2 stl    1990 Feb   12966. 13269.     -258.     -44.6          13224.
    ##  3 stl    1990 Mar   12938. 13250.     -290.     -22.1          13228.
    ##  4 stl    1990 Apr   13012. 13231.     -220.       1.05         13232.
    ##  5 stl    1990 May   13108. 13211.     -114.      11.3          13223.
    ##  6 stl    1990 Jun   13183. 13192.      -24.3     15.5          13207.
    ##  7 stl    1990 Jul   13170. 13172.      -23.2     21.6          13193.
    ##  8 stl    1990 Aug   13160. 13151.       -9.52    17.8          13169.
    ##  9 stl    1990 Sep   13113. 13131.      -39.5     22.0          13153.
    ## 10 stl    1990 Oct   13185. 13110.       61.6     13.2          13124.
    ## # … with 347 more rows
…
